Title~Description~Shortcut~logo~OnAir~Style~Region~Stream~Bitrate~Podcast~IsPlayCz
ČRo Plus~Zpravodajství a publicistika do hloubky.~croplus~http://api.play.cz/static/radio_logo/croplus.jpg~false~~celoplosne|~http://icecast1.play.cz/croplus128.mp3~128~Podcast~1
Evropa 2~Maxximum Tvý Muziky!~evropa2~http://api.play.cz/static/radio_logo/evropa2.png~true~rock|pop|dance|~celoplosne|~http://icecast3.play.cz/evropa2-128.mp3~128~Podcast~1
Český rozhlas Radiožurnál~Každý den s Vámi~cro1~http://api.play.cz/static/radio_logo/cro1.jpg~true~news|pop|~celoplosne|~http://icecast8.play.cz/cro1-128.mp3~128~Podcast~1
ČRo Vltava~Biograf pro Vaše uši~cro3~http://api.play.cz/static/radio_logo/cro3.jpg~true~~celoplosne|~http://icecast4.play.cz/cro3-256.mp3~256~Podcast~1
ČRo Dvojka~Na vlně pohody~cro2~http://api.play.cz/static/radio_logo/cro2.jpg~true~pop|oldies|~celoplosne|~http://icecast6.play.cz/cro2-128.mp3~128~Podcast~1
COUNTRY RADIO~Klidné rádio do neklidné doby~country~http://api.play.cz/static/radio_logo/country.png~true~country|~stredocesky|ustecky|praha|plzensky|pardubicky|liberecky|kralovohradecky|karlovarsky|jihocesky|~http://icecast4.play.cz/country128.mp3~128~Podcast~1
Krokodýl~HIT ZA HITEM - ANI JEDEN 2x~krokodyl~http://api.play.cz/static/radio_logo/krokodyl.PNG~false~rock|pop|hotac|90s|80s|~vysocina|jihomoravsky|~http://icecast4.play.cz/krokodyl128.mp3~128~Podcast~1
Haná~Nejlepší hudební výběr!~hana~http://api.play.cz/static/radio_logo/hana.png~false~pop|~olomoucky|~http://icecast8.play.cz/hana160.mp3~160~Podcast~1
Dance radio~opravdové taneční rádio~danceradio~http://api.play.cz/static/radio_logo/danceradio.jpeg~true~Trance|house|dance|90s|~praha|~http://icecast6.play.cz/dance-radio192.mp3~192~Podcast~1
Radio 1~Je hodně stanic, ale jen jedno Radio!~radio1~http://api.play.cz/static/radio_logo/radio1.jpg~true~alternative|~praha|~http://icecast2.play.cz/radio1.mp3~192~Podcast~1
Radio Kiss~To nejlepší od 90. let~kiss~http://api.play.cz/static/radio_logo/kiss.png~true~pop|dance|90s|00s|~celoplosne|~http://icecast1.play.cz/kiss128.mp3~128~Podcast~1
Český Impuls 981 AM~České písničky 60. až 80. let. Celý den.~cesky-impuls~http://api.play.cz/static/radio_logo/cesky-impuls.png~false~oldies|folk|country|pop|~internet|celoplosne|~http://icecast6.play.cz/cesky-impuls.mp3~128~Podcast~1
Be iN Radio Network~Czech Music & Funny Channels~be-in-radio-network-1~http://api.play.cz/static/radio_logo/be-in-radio-network-1.jpg~true~soul|rock|rnb|pop|talk|metal|house|hiphop|dance|classic|90s|80s|~internet|~http://icecast1.play.cz/beinradionetwork1-128.mp3~128~Podcast~1
Beat~První bigbeat u nás~beat~http://api.play.cz/static/radio_logo/beat.png~true~rock|metal|~internet|celoplosne|~http://icecast2.play.cz/radiobeat128.mp3~128~Podcast~1
Bonton~české melodie a dárky~bonton~http://api.play.cz/static/radio_logo/bonton.png~true~pop|folk|country|90s|80s|~stredocesky|praha|~http://icecast3.play.cz/bonton-128.mp3~128~Podcast~1
Classic Praha~Superhity za posledních 500 let.~classic~http://api.play.cz/static/radio_logo/classic.png~true~classic|~praha|~http://icecast8.play.cz/classic128.mp3~128~Podcast~1
ClubRadio.cz~Nejlepší výběr taneční muziky~clubradio~http://api.play.cz/static/radio_logo/clubradio.png~true~Trance|rnb|house|dance|90s|~internet|~http://icecast2.play.cz/Clubradio.mp3~128~Podcast~1
COLOR Music Radio | Všechny barvy hudby~Funk, Soul, R´n´B, Hip-Hop, Reggae, World Music | Naladíš a už nepřeladíš~ethno~http://api.play.cz/static/radio_logo/ethno.JPG~true~rnb|jazz|hiphop|funk|ethno|dance|alternative|~moravskoslezky|karlovarsky|jihomoravsky|praha|~http://icecast6.play.cz/color192.mp3~192~Podcast~1
Rádio Retro~(Ne)rozděleni~croretro~http://api.play.cz/static/radio_logo/croretro.png~false~talk|~internet|~http://icecast7.play.cz/croretro128.mp3~128~Podcast~1
Český rozhlas Radiožurnál~Každý den s Vámi~cro1~http://api.play.cz/static/radio_logo/cro1.jpg~true~news|pop|~celoplosne|~http://icecast8.play.cz/cro1-128.mp3~128~Podcast~1
ČRo Dvojka~Na vlně pohody~cro2~http://api.play.cz/static/radio_logo/cro2.jpg~true~pop|oldies|~celoplosne|~http://icecast6.play.cz/cro2-128.mp3~128~Podcast~1
ČRo Vltava~Biograf pro Vaše uši~cro3~http://api.play.cz/static/radio_logo/cro3.jpg~true~~celoplosne|~http://icecast4.play.cz/cro3-256.mp3~256~Podcast~1
ČRo Radio Praha~Vysílání Českého rozhlasu do zahraničí.~cro7~http://api.play.cz/static/radio_logo/cro7.jpg~false~~~http://icecast2.play.cz/cro7-128.mp3~128~Podcast~1
ČRo Radio Wave~Děláme vlny~crowave~http://api.play.cz/static/radio_logo/crowave.jpg~false~rock|pop|indie|folk|alternative|~celoplosne|~http://icecast3.play.cz/crowave-256.mp3~256~Podcast~1
ČRo D-dur~Klasická hudba od renesance až po tvorbu 21. století v digitální kvalitě 24 hodin denně.~croddur~http://api.play.cz/static/radio_logo/croddur.jpg~true~classic|~celoplosne|~http://icecast6.play.cz/croddur-256.mp3~256~Podcast~1
ČRo Jazz~Jazz je naše vášeň – vysíláme 24 hodin denně.~crojazz~http://api.play.cz/static/radio_logo/crojazz.jpg~false~jazz|alternative|~celoplosne|~http://icecast4.play.cz/crojazz256.mp3~256~Podcast~1
Rádio Junior~Nejlepší pohádky, nejhezčí písničky, zábavné soutěže a veselé povídání pro všechny děti, od rána až do večera.~crojuniormaxi~http://api.play.cz/static/radio_logo/crojuniormaxi.jpg~false~kids|pop|talk|~internet|~http://icecast5.play.cz/crojuniormaxi128.mp3~128~Podcast~1
Rádio Junior Písničky~Rádio Junior Písničky – písničky pro menší děti~crojuniormini~http://api.play.cz/static/radio_logo/crojuniormini.jpg~false~kids|pop|talk|~internet|~http://icecast7.play.cz/crojuniormini128.mp3~128~Podcast~1
ČRo Brno~Rádio vašeho kraje~crobrno~http://api.play.cz/static/radio_logo/crobrno.jpg~false~news|allformat|~zlinsky|jihomoravsky|~http://icecast2.play.cz/crobrno128.mp3~128~Podcast~1
ČRo České Budějovice~Rádio Vašeho kraje~crocb~http://api.play.cz/static/radio_logo/crocb.jpg~false~pop|allformat|~jihocesky|~http://icecast2.play.cz/crocb128.mp3~128~Podcast~1
ČRo Hradec Králové~Rádio Vašeho kraje~crohk~http://api.play.cz/static/radio_logo/crohk.jpg~false~pop|allformat|~kralovohradecky|~http://icecast2.play.cz/crohk128.mp3~128~Podcast~1
ČRo Olomouc~Vaše moravské rádio~crool~http://api.play.cz/static/radio_logo/crool.jpg~false~oldies|allformat|~olomoucky|~http://icecast2.play.cz/crool128.mp3~128~Podcast~1
ČRo Ostrava~Rozhlas severní Moravy a Slezska~croov~http://api.play.cz/static/radio_logo/croov.jpg~false~news|pop|oldies|classic|~moravskoslezky|~http://icecast2.play.cz/croov128.mp3~128~Podcast~1
ČRo Pardubice~Region jako na dlani~cropardubice~http://api.play.cz/static/radio_logo/cropardubice.jpg~false~pop|allformat|~pardubicky|~http://icecast2.play.cz/cropardubice128.mp3~128~Podcast~1
ČRo Plzeň~Rádio Vašeho kraje~croplzen~http://api.play.cz/static/radio_logo/croplzen.jpg~false~allformat|oldies|~karlovarsky|plzensky|~http://icecast2.play.cz/croplzen128.mp3~128~Podcast~1
ČRo Plzeň, studio Karlovy Vary~Rádio Vašeho kraje~crokv~http://api.play.cz/static/radio_logo/crokv.jpg~false~oldies|allformat|~karlovarsky|plzensky|~http://icecast2.play.cz/crokv128.mp3~128~Podcast~1
ČRo Regina DAB Praha~Vaše pražské rádio~croregina~http://api.play.cz/static/radio_logo/croregina.png~false~pop|~praha|~http://icecast2.play.cz/croregina128.mp3~128~Podcast~1
ČRo Region, Středočeský kraj~Rádio vašeho kraje~croregion~http://api.play.cz/static/radio_logo/croregion.jpg~false~pop|~stredocesky|~http://icecast2.play.cz/croregion128.mp3~128~Podcast~1
ČRo Region, Vysočina~Rádio Vašeho kraje~croregionvysocina~http://api.play.cz/static/radio_logo/croregionvysocina.jpg~false~~vysocina|~http://icecast2.play.cz/crovysocina128.mp3~128~Podcast~1
ČRo Sever~Rádio, které žije s Vámi~crosever~http://api.play.cz/static/radio_logo/crosever.jpg~false~country|allformat|pop|~ustecky|~http://icecast2.play.cz/crosever128.mp3~128~Podcast~1
ČRo Liberec~Rádio vašeho kraje~croliberec~http://api.play.cz/static/radio_logo/croliberec.jpg~false~news|pop|oldies|allformat|90s|80s|~liberecky|~http://icecast2.play.cz/croliberec128.mp3~128~Podcast~1
ČRo Zlín~Rozhlas pro Zlínský kraj~crozlin~http://api.play.cz/static/radio_logo/crozlin.png~false~allformat|~zlinsky|~http://icecast7.play.cz/crozlin128.mp3~128~Podcast~1
Dance radio~opravdové taneční rádio~danceradio~http://api.play.cz/static/radio_logo/danceradio.jpeg~true~Trance|house|dance|90s|~praha|~http://icecast6.play.cz/dance-radio192.mp3~192~Podcast~1
DAB Plus Top 40~DAB Plus Top 40 – Nejposlouchanější aktuální hity současnosti~dabplus-top40~http://api.play.cz/static/radio_logo/dabplus-top40.png~true~dance|pop|~celoplosne|~http://icecast6.play.cz/dabplus-top40.mp3~128~Podcast~1
Egrensis~Radio Egrensis - Pohoda!~egrensis~http://api.play.cz/static/radio_logo/egrensis.png~true~rock|pop|allformat|90s|80s|~karlovarsky|internet|~http://icecast8.play.cz/egrensis192.mp3~192~Podcast~1
Evropa 2~Maxximum Tvý Muziky!~evropa2~http://api.play.cz/static/radio_logo/evropa2.png~true~rock|pop|dance|~celoplosne|~http://icecast3.play.cz/evropa2-128.mp3~128~Podcast~1
Expres FM~Nejlepší hudba v metropoli~expres~http://api.play.cz/static/radio_logo/expres.JPG~true~rock|rnb|pop|indie|hiphop|dance|alternative|~praha|~http://icecast8.play.cz/expres128mp3~128~Podcast~1
Free Rádio 107,0 FM Brno~První v Brně s nejnovějšími hity!~freeradio~http://api.play.cz/static/radio_logo/freeradio.png~true~Trance|rnb|pop|house|hiphop|dance|90s|~jihomoravsky|~http://icecast8.play.cz/freeradio128.mp3~128~Podcast~1
Frekvence 1~Frekvence 1 - víc pro všechny.~frekvence1~http://api.play.cz/static/radio_logo/frekvence1.jpg~true~allformat|90s|80s|pop|~celoplosne|~http://icecast3.play.cz/frekvence1-128.mp3~128~Podcast~1
Haná~Nejlepší hudební výběr!~hana~http://api.play.cz/static/radio_logo/hana.png~false~pop|~olomoucky|~http://icecast8.play.cz/hana160.mp3~160~Podcast~1
Haná - Sky Rock~Nejlepší rockový výběr!~skyrock~http://api.play.cz/static/radio_logo/skyrock.png~false~rock|~internet|~http://icecast8.play.cz/skyrock128.mp3~128~Podcast~1
hardradio.fm~Mladé barevné rádio plné energie~hardradiofm~http://api.play.cz/static/radio_logo/hardradiofm.jpg~true~rnb|hiphop|dance|90s|~internet|~http://icecast3.play.cz/hardradiofm128.mp3~128~Podcast~1
HEY Radio | ROCK | Zůstaň s námi naHey!!~ROCK | Rock & Pop | Best of 80´- 90´| Poctivá muzika pro každý den!~hey-radio~http://api.play.cz/static/radio_logo/hey-radio.jpg~true~oldies|bigbit|90s|80s|rock|~internet|celoplosne|~http://icecast3.play.cz/hey-radio128.mp3~128~Podcast~1
Impuls Ráááádio~Zlatá česká klasika i nová česká muzika.~impuls~http://api.play.cz/static/radio_logo/impuls.png~true~allformat|~celoplosne|~http://icecast1.play.cz/impuls128.mp3~128~Podcast~1
Jih~Rádio Jih - Stále dobře naladěné~jih~http://api.play.cz/static/radio_logo/jih.png~false~pop|~jihomoravsky|~http://icecast6.play.cz/jih128.mp3~128~Podcast~1
Krokodýl~HIT ZA HITEM - ANI JEDEN 2x~krokodyl~http://api.play.cz/static/radio_logo/krokodyl.PNG~false~rock|pop|hotac|90s|80s|~vysocina|jihomoravsky|~http://icecast4.play.cz/krokodyl128.mp3~128~Podcast~1
Limonádový JOE~Rádio Limonádový JOE - Nejlepší rádio bledých tváří.~joeradioi~http://api.play.cz/static/radio_logo/joeradioi.png~true~allformat|~internet|~http://icecast8.play.cz/limonadovyjoe128.mp3~128~Podcast~1
Oldies radio~Nejlepší hudba 60., 70. a 80. let~olympic~http://api.play.cz/static/radio_logo/olympic.png~true~oldies|~praha|~http://icecast8.play.cz/oldies128.mp3~128~Podcast~1
Pigy.cz - Pohádky~pohádkové rádio (nejen) pro děti~pigy-radio-pohadky~http://api.play.cz/static/radio_logo/pigy-radio-pohadky.jpg~false~kids|talk|~internet|~http://pool.cdn.lagardere.cz/web-pg-pohadky~128~Podcast~1
Pigy.cz - Písničky z pohádek~~pigy-radio-pisnicky~http://api.play.cz/static/radio_logo/pigy-radio-pisnicky.jpg~false~kids|~internet|~http://pool.cdn.lagardere.cz/web-pg-pisnicky~128~Podcast~1
Pigy.cz - Disko Trysko~~pigy-radio-disko~http://api.play.cz/static/radio_logo/pigy-radio-disko.jpg~false~kids|~internet|~http://pool.cdn.lagardere.cz/web-pg-disko~128~Podcast~1
Proglas~Rodinné rádio – název programu Radio Proglas~proglas~http://api.play.cz/static/radio_logo/proglas.png~true~allformat|~celoplosne|~http://icecast2.play.cz/proglas128~128~Podcast~1
Radio 1~Je hodně stanic, ale jen jedno Radio!~radio1~http://api.play.cz/static/radio_logo/radio1.jpg~true~alternative|~praha|~http://icecast2.play.cz/radio1.mp3~192~Podcast~1
Radio 7~Rádio 7 - život očima křesťana, pro hledající řešení a povzbuzení. Rádio, které nemyslí za vás.~radio7~http://api.play.cz/static/radio_logo/radio7.png~true~talk|~internet|~http://icecast8.play.cz/radio7-128.mp3~128~Podcast~1
Radio Contact Liberec~Den plný hudby~contact~http://api.play.cz/static/radio_logo/contact.png~false~softac|pop|~liberecky|~http://icecast8.play.cz/contact128.mp3~128~Podcast~1
Radio Čas (Slovácko)~Nejlepší muzika na Moravě~dyje~http://api.play.cz/static/radio_logo/dyje.jpg~false~pop|~jihomoravsky|~http://icecast7.play.cz/dyje128.mp3~128~Podcast~1
Rádio Čas Rock~Pravé Rockové rádio~casrock~http://api.play.cz/static/radio_logo/casrock.jpg~true~rock|~moravskoslezky|~http://icecast6.play.cz/casrock128.mp3~128~Podcast~1
Radio Čas (Olomouc)~Nejlepší muzika na Moravě~casradioolomouc~http://api.play.cz/static/radio_logo/casradioolomouc.jpg~false~pop|~olomoucky|~http://icecast7.play.cz/casradioolomouc128.mp3~128~Podcast~1
Radio Čas (Brno)~Nejlepší muzika na Moravě~casbrno~http://api.play.cz/static/radio_logo/casbrno.jpg~true~oldies|folk|country|~jihomoravsky|~http://icecast7.play.cz/casbrno128.mp3~128~Podcast~1
Radio Čas~Nejlepší muzika na Moravě~casradio~http://api.play.cz/static/radio_logo/casradio.jpg~true~pop|~moravskoslezky|~http://icecast6.play.cz/casradio128.mp3~128~Podcast~1
Radio Čas (Zlín)~Nejlepší muzika na Moravě~casradiozlin~http://api.play.cz/static/radio_logo/casradiozlin.jpg~false~pop|~zlinsky|~http://icecast7.play.cz/casradiozlin128.mp3~128~Podcast~1
Rádio Černá Hora~Víc muziky!~cernahora~http://api.play.cz/static/radio_logo/cernahora.png~true~rock|pop|~pardubicky|liberecky|kralovohradecky|stredocesky|~http://icecast6.play.cz/cernahora128.mp3~128~Podcast~1
RADIO DIXIE~Sound of America~radiodixie~http://api.play.cz/static/radio_logo/radiodixie.png~true~rock|country|~internet|~http://icecast6.play.cz/radiodixie192.mp3~192~Podcast~1
Radio Dechovka~První dechovkové rádio~radiodechovka~http://api.play.cz/static/radio_logo/radiodechovka.png~false~folk|dechovka|~internet|~http://icecast5.play.cz/dechovka128.mp3~128~Podcast~1
Radio Fajn Rock Music~ZAHRANIČNÍ a ČESKÝ SUPER ROCK - od 70.LET po SOUČASNOST-od ROCK-POPU po NEJOSTŘEJŠÍ METAL~fajnrockmusic~http://api.play.cz/static/radio_logo/fajnrockmusic.png~true~rock|~internet|~http://icecast2.play.cz/fajnrock192.mp3~192~Podcast~1
Radio Jih - Cimbálka~Moravský folklór 24 hodin denně.~jihcimbalka~http://api.play.cz/static/radio_logo/jihcimbalka.png~false~~jihomoravsky|~http://icecast6.play.cz/jihcimbalka128.mp3~128~Podcast~1
Rádio Gothic~Rádio zaměřené na Gothic Metal, Melodic Metal, Symphonic Metal ...~radiogothic~http://api.play.cz/static/radio_logo/radiogothic.jpg~true~rock|metal|gothic|~internet|~http://icecast1.play.cz/Radiogothic128.mp3~128~Podcast~1
Rádio Jihlava~Nejpohodovější hudba a zábava ve městě.~jihlava~http://api.play.cz/static/radio_logo/jihlava.png~false~pop|~vysocina|~http://icecast3.play.cz/radiojihlava128.mp3~128~Podcast~1
Radio Kiss~To nejlepší od 90. let~kiss~http://api.play.cz/static/radio_logo/kiss.png~true~pop|dance|90s|00s|~celoplosne|~http://icecast1.play.cz/kiss128.mp3~128~Podcast~1
Radio Kroměříž~Jsme Vám blíž~radio-kromeriz~http://api.play.cz/static/radio_logo/radio-kromeriz.jpg~true~news|rock|rnb|pop|hotac|dance|90s|80s|~zlinsky|~http://icecast6.play.cz/radio-kromeriz128.mp3~128~Podcast~1
RADIO NOSTALGIE~Taneční diskotékové hity z let 1970 až 2005.~radio-nostalgie~http://api.play.cz/static/radio_logo/radio-nostalgie.jpg~true~pop|oldies|dance|90s|80s|~internet|~http://icecast3.play.cz/radio-nostalgie128.mp3~128~Podcast~1
Rádio Petrov~Vaše pohodové rádio~radiopetrov~http://api.play.cz/static/radio_logo/radiopetrov.PNG~false~allformat|pop|~jihomoravsky|~http://icecast6.play.cz/petrov128.mp3~128~Podcast~1
Rádio Petrov Folk & Country~Vaše pohodové rádio~petrovfc~http://api.play.cz/static/radio_logo/petrovfc.PNG~false~country|folk|~internet|~http://icecast8.play.cz/petrovfc.mp3~128~Podcast~1
Rádio Petrov Rock~Vaše pohodové rádio~petrovr~http://api.play.cz/static/radio_logo/petrovr.PNG~false~rock|~internet|~http://icecast8.play.cz/petrovr.mp3~128~Podcast~1
Rádio Samson FM~Radio Samson - šťastné rádio.~samsonfm~http://api.play.cz/static/radio_logo/samsonfm.png~true~rock|oldies|folk|country|~plzensky|karlovarsky|~http://icecast8.play.cz/samsonfm128.mp3~128~Podcast~1
Radio SÁZAVA | Na nic si nehrajem!~Rock | 80´- 90´| CountryRock | Oldies | Sountrack | Originální hudební vlna. Hudba, hudba, hudba...~sazava~http://api.play.cz/static/radio_logo/sazava.jpg~true~rock|oldies|folk|country|bigbit|90s|80s|~internet|celoplosne|~http://icecast8.play.cz/sazava128.mp3~128~Podcast~1
Rádio Spin 96,2 FM~Be In – rádio Spin~spin~http://api.play.cz/static/radio_logo/spin.jpg~true~rnb|hiphop|dance|~praha|~http://icecast4.play.cz/spin128.mp3~128~Podcast~1
Radio Zlín~Stále NEJ...~radiozlin~http://api.play.cz/static/radio_logo/radiozlin.png~false~hotac|~zlinsky|~http://icecast1.play.cz/radiozlin128.mp3~128~Podcast~1
Rock Max~Rock station 89,6 a 95,6 FM~rockmax~http://api.play.cz/static/radio_logo/rockmax.png~false~rock|~zlinsky|~http://icecast1.play.cz/rockmax128.mp3~128~Podcast~1
RockZone 105,9~V KAŽDÉM JE KUS ROCKERA.~rockzone~http://api.play.cz/static/radio_logo/rockzone.png~false~rock|~praha|~http://icecast2.play.cz/rockzone128.mp3~128~Podcast~1
Radio Rubi~hrajeme jen to nejlepší~rubi~http://api.play.cz/static/radio_logo/rubi.png~true~pop|dance|~olomoucky|moravskoslezky|jihomoravsky|zlinsky|~http://icecast8.play.cz/radiorubi128.mp3~128~Podcast~1
SeeJay Radio~Dance Music Only! Poslouchej nás živě!~seejay-radio~http://api.play.cz/static/radio_logo/seejay-radio.png~true~pop|house|dance|Trance|~internet|celoplosne|~http://icecast6.play.cz/seejay128.mp3~128~Podcast~1
Signál Rádio Brno~České melodie, které máte rádi~signal-brno~http://api.play.cz/static/radio_logo/signal-brno.png~false~oldies|pop|~jihomoravsky|~http://icecast3.play.cz/signal-brno192.mp3~192~Podcast~1
Signál Rádio~České melodie, které máte rádi~signal~http://api.play.cz/static/radio_logo/signal.png~true~pop|oldies|~stredocesky|~http://icecast1.play.cz/signal192.mp3~192~Podcast~1
Slow Radio~Právě teď kdesi v jižních Čechách. Poslouchejte ptačí ráj v přímém přenosu!~slowradio~http://api.play.cz/static/radio_logo/slowradio.png~false~~jihocesky|~http://icecast1.play.cz/slowradio160.mp3~160~Podcast~1
STAGE Radio~"Jsme tak trochu ""cáklí""... přidáte se?"~stage~http://api.play.cz/static/radio_logo/stage.jpg~false~allformat|~moravskoslezky|~http://icecast8.play.cz/stage128.mp3~128~Podcast~1
StreetCulture~StreetCulture je jediné žižkovské rádio! StreetCulture je jediné internetové rádio podobného charakteru ve Střední Evropě!~streetradio~http://api.play.cz/static/radio_logo/streetradio.jpg~false~talk|metal|indie|hiphop|folk|alternative|rock|~internet|~http://icecast2.play.cz/streetradio.mp3~128~Podcast~1
Undergroundradio~V podzemí to žije~underground~http://api.play.cz/static/radio_logo/underground.png~true~rock|folk|alternative|~internet|~http://icecast2.play.cz/Underground128.mp3~128~Podcast~1
